info face="Pica Hole - XPL" size=16 bold=0 italic=0 charset="" unicode=1 stretchH=100 smooth=1 aa=1 padding=0,0,0,0 spacing=1,1 outline=0
common lineHeight=16 base=15 scaleW=256 scaleH=256 pages=1 packed=0 alphaChnl=1 redChnl=0 greenChnl=0 blueChnl=0
page id=0 file="led_grid_0.png"
chars count=36
char id=48   x=122   y=28    width=15    height=13    xoffset=-1    yoffset=2     xadvance=13    page=0  chnl=15
char id=49   x=106   y=28    width=15    height=13    xoffset=-1    yoffset=2     xadvance=13    page=0  chnl=15
char id=50   x=99    y=0     width=17    height=13    xoffset=-1    yoffset=2     xadvance=15    page=0  chnl=15
char id=51   x=117   y=0     width=17    height=13    xoffset=-1    yoffset=2     xadvance=15    page=0  chnl=15
char id=52   x=135   y=0     width=17    height=13    xoffset=-1    yoffset=2     xadvance=15    page=0  chnl=15
char id=53   x=153   y=0     width=17    height=13    xoffset=-1    yoffset=2     xadvance=15    page=0  chnl=15
char id=54   x=171   y=0     width=17    height=13    xoffset=-1    yoffset=2     xadvance=15    page=0  chnl=15
char id=55   x=189   y=0     width=17    height=13    xoffset=-1    yoffset=2     xadvance=15    page=0  chnl=15
char id=56   x=207   y=0     width=17    height=13    xoffset=-1    yoffset=2     xadvance=15    page=0  chnl=15
char id=57   x=225   y=0     width=17    height=13    xoffset=-1    yoffset=2     xadvance=15    page=0  chnl=15
char id=65   x=0     y=14    width=17    height=13    xoffset=-1    yoffset=2     xadvance=15    page=0  chnl=15
char id=66   x=18    y=14    width=17    height=13    xoffset=-1    yoffset=2     xadvance=15    page=0  chnl=15
char id=67   x=36    y=14    width=17    height=13    xoffset=-1    yoffset=2     xadvance=15    page=0  chnl=15
char id=68   x=54    y=14    width=17    height=13    xoffset=-1    yoffset=2     xadvance=15    page=0  chnl=15
char id=69   x=72    y=14    width=17    height=13    xoffset=-1    yoffset=2     xadvance=15    page=0  chnl=15
char id=70   x=90    y=14    width=17    height=13    xoffset=-1    yoffset=2     xadvance=15    page=0  chnl=15
char id=71   x=108   y=14    width=17    height=13    xoffset=-1    yoffset=2     xadvance=15    page=0  chnl=15
char id=72   x=81    y=0     width=17    height=13    xoffset=-1    yoffset=2     xadvance=15    page=0  chnl=15
char id=73   x=138   y=28    width=15    height=13    xoffset=-1    yoffset=2     xadvance=13    page=0  chnl=15
char id=74   x=126   y=14    width=17    height=13    xoffset=-1    yoffset=2     xadvance=15    page=0  chnl=15
char id=75   x=144   y=14    width=17    height=13    xoffset=-1    yoffset=2     xadvance=15    page=0  chnl=15
char id=76   x=162   y=14    width=17    height=13    xoffset=-1    yoffset=2     xadvance=15    page=0  chnl=15
char id=77   x=0     y=0     width=20    height=13    xoffset=-1    yoffset=2     xadvance=18    page=0  chnl=15
char id=78   x=180   y=14    width=17    height=13    xoffset=-1    yoffset=2     xadvance=15    page=0  chnl=15
char id=79   x=198   y=14    width=17    height=13    xoffset=-1    yoffset=2     xadvance=15    page=0  chnl=15
char id=80   x=216   y=14    width=17    height=13    xoffset=-1    yoffset=2     xadvance=15    page=0  chnl=15
char id=81   x=234   y=14    width=17    height=13    xoffset=-1    yoffset=2     xadvance=15    page=0  chnl=15
char id=82   x=0     y=28    width=17    height=13    xoffset=-1    yoffset=2     xadvance=15    page=0  chnl=15
char id=83   x=18    y=28    width=17    height=13    xoffset=-1    yoffset=2     xadvance=15    page=0  chnl=15
char id=84   x=90    y=28    width=15    height=13    xoffset=-1    yoffset=2     xadvance=13    page=0  chnl=15
char id=85   x=36    y=28    width=17    height=13    xoffset=-1    yoffset=2     xadvance=15    page=0  chnl=15
char id=86   x=54    y=28    width=17    height=13    xoffset=-1    yoffset=2     xadvance=15    page=0  chnl=15
char id=87   x=21    y=0     width=20    height=13    xoffset=-1    yoffset=2     xadvance=18    page=0  chnl=15
char id=88   x=72    y=28    width=17    height=13    xoffset=-1    yoffset=2     xadvance=15    page=0  chnl=15
char id=89   x=42    y=0     width=20    height=13    xoffset=-1    yoffset=2     xadvance=18    page=0  chnl=15
char id=90   x=63    y=0     width=17    height=13    xoffset=-1    yoffset=2     xadvance=15    page=0  chnl=15
