info face="Belligerent Madness" size=80 bold=0 italic=0 charset="" unicode=1 stretchH=100 smooth=1 aa=1 padding=0,0,0,0 spacing=1,1 outline=0
common lineHeight=80 base=58 scaleW=512 scaleH=512 pages=1 packed=0 alphaChnl=0 redChnl=4 greenChnl=4 blueChnl=4
page id=0 file="belbitfont_0.png"
chars count=93
char id=32   x=27    y=60    width=3     height=1     xoffset=-1    yoffset=79    xadvance=21    page=0  chnl=15
char id=33   x=0     y=118   width=12    height=53    xoffset=1     yoffset=11    xadvance=14    page=0  chnl=15
char id=34   x=457   y=247   width=18    height=21    xoffset=0     yoffset=11    xadvance=18    page=0  chnl=15
char id=35   x=101   y=219   width=37    height=45    xoffset=0     yoffset=12    xadvance=37    page=0  chnl=15
char id=36   x=225   y=165   width=34    height=49    xoffset=0     yoffset=10    xadvance=34    page=0  chnl=15
char id=37   x=137   y=168   width=44    height=49    xoffset=0     yoffset=13    xadvance=45    page=0  chnl=15
char id=38   x=27    y=0     width=46    height=59    xoffset=0     yoffset=1     xadvance=46    page=0  chnl=15
char id=39   x=494   y=208   width=10    height=25    xoffset=1     yoffset=9     xadvance=12    page=0  chnl=15
char id=40   x=320   y=164   width=16    height=49    xoffset=0     yoffset=10    xadvance=17    page=0  chnl=15
char id=41   x=0     y=223   width=16    height=47    xoffset=0     yoffset=11    xadvance=16    page=0  chnl=15
char id=42   x=351   y=252   width=24    height=26    xoffset=0     yoffset=19    xadvance=24    page=0  chnl=15
char id=43   x=0     y=271   width=31    height=35    xoffset=0     yoffset=14    xadvance=31    page=0  chnl=15
char id=44   x=376   y=250   width=18    height=25    xoffset=0     yoffset=45    xadvance=19    page=0  chnl=15
char id=45   x=41    y=305   width=31    height=9     xoffset=0     yoffset=25    xadvance=31    page=0  chnl=15
char id=46   x=22    y=307   width=18    height=15    xoffset=1     yoffset=45    xadvance=20    page=0  chnl=15
char id=47   x=263   y=112   width=37    height=51    xoffset=0     yoffset=10    xadvance=37    page=0  chnl=15
char id=48   x=17    y=223   width=41    height=46    xoffset=0     yoffset=13    xadvance=41    page=0  chnl=15
char id=49   x=294   y=164   width=25    height=49    xoffset=0     yoffset=10    xadvance=25    page=0  chnl=15
char id=50   x=287   y=58    width=43    height=53    xoffset=0     yoffset=11    xadvance=43    page=0  chnl=15
char id=51   x=109   y=115   width=40    height=52    xoffset=0     yoffset=10    xadvance=40    page=0  chnl=15
char id=52   x=102   y=60    width=39    height=54    xoffset=-1    yoffset=10    xadvance=39    page=0  chnl=15
char id=53   x=119   y=0     width=36    height=59    xoffset=0     yoffset=9     xadvance=36    page=0  chnl=15
char id=54   x=402   y=111   width=42    height=50    xoffset=0     yoffset=8     xadvance=42    page=0  chnl=15
char id=55   x=228   y=0     width=44    height=57    xoffset=0     yoffset=12    xadvance=44    page=0  chnl=15
char id=56   x=260   y=165   width=33    height=49    xoffset=0     yoffset=11    xadvance=33    page=0  chnl=15
char id=57   x=150   y=115   width=39    height=52    xoffset=0     yoffset=9     xadvance=39    page=0  chnl=15
char id=58   x=360   y=212   width=21    height=37    xoffset=0     yoffset=17    xadvance=21    page=0  chnl=15
char id=59   x=491   y=159   width=19    height=48    xoffset=0     yoffset=17    xadvance=19    page=0  chnl=15
char id=60   x=190   y=218   width=29    height=44    xoffset=0     yoffset=12    xadvance=29    page=0  chnl=15
char id=61   x=476   y=246   width=30    height=19    xoffset=0     yoffset=22    xadvance=30    page=0  chnl=15
char id=62   x=291   y=215   width=31    height=39    xoffset=0     yoffset=15    xadvance=31    page=0  chnl=15
char id=63   x=190   y=114   width=30    height=52    xoffset=0     yoffset=11    xadvance=30    page=0  chnl=15
char id=64   x=182   y=168   width=42    height=49    xoffset=0     yoffset=12    xadvance=42    page=0  chnl=15
char id=65   x=192   y=59    width=50    height=53    xoffset=0     yoffset=10    xadvance=50    page=0  chnl=15
char id=66   x=379   y=162   width=39    height=48    xoffset=0     yoffset=10    xadvance=39    page=0  chnl=15
char id=67   x=151   y=218   width=38    height=44    xoffset=0     yoffset=11    xadvance=38    page=0  chnl=15
char id=68   x=59    y=222   width=41    height=46    xoffset=0     yoffset=12    xadvance=42    page=0  chnl=15
char id=69   x=456   y=161   width=34    height=48    xoffset=0     yoffset=12    xadvance=34    page=0  chnl=15
char id=70   x=142   y=60    width=38    height=54    xoffset=0     yoffset=9     xadvance=38    page=0  chnl=15
char id=71   x=0     y=63    width=54    height=54    xoffset=0     yoffset=9     xadvance=54    page=0  chnl=15
char id=72   x=331   y=57    width=40    height=53    xoffset=0     yoffset=8     xadvance=40    page=0  chnl=15
char id=73   x=479   y=55    width=29    height=53    xoffset=0     yoffset=10    xadvance=29    page=0  chnl=15
char id=74   x=472   y=0     width=39    height=54    xoffset=0     yoffset=9     xadvance=39    page=0  chnl=15
char id=75   x=273   y=0     width=41    height=57    xoffset=0     yoffset=9     xadvance=41    page=0  chnl=15
char id=76   x=221   y=113   width=41    height=51    xoffset=0     yoffset=10    xadvance=41    page=0  chnl=15
char id=77   x=74    y=0     width=44    height=59    xoffset=0     yoffset=9     xadvance=44    page=0  chnl=15
char id=78   x=361   y=0     width=38    height=56    xoffset=0     yoffset=6     xadvance=38    page=0  chnl=15
char id=79   x=337   y=163   width=41    height=48    xoffset=0     yoffset=8     xadvance=41    page=0  chnl=15
char id=80   x=372   y=57    width=36    height=53    xoffset=0     yoffset=10    xadvance=36    page=0  chnl=15
char id=81   x=431   y=0     width=40    height=55    xoffset=0     yoffset=9     xadvance=40    page=0  chnl=15
char id=82   x=37    y=171   width=35    height=50    xoffset=0     yoffset=10    xadvance=35    page=0  chnl=15
char id=83   x=67    y=115   width=41    height=52    xoffset=0     yoffset=9     xadvance=41    page=0  chnl=15
char id=84   x=55    y=60    width=46    height=54    xoffset=0     yoffset=10    xadvance=46    page=0  chnl=15
char id=85   x=445   y=110   width=42    height=50    xoffset=0     yoffset=9     xadvance=42    page=0  chnl=15
char id=86   x=355   y=111   width=46    height=50    xoffset=0     yoffset=10    xadvance=46    page=0  chnl=15
char id=87   x=243   y=58    width=43    height=53    xoffset=0     yoffset=12    xadvance=43    page=0  chnl=15
char id=88   x=156   y=0     width=37    height=58    xoffset=0     yoffset=6     xadvance=37    page=0  chnl=15
char id=89   x=194   y=0     width=33    height=58    xoffset=0     yoffset=11    xadvance=33    page=0  chnl=15
char id=90   x=315   y=0     width=45    height=56    xoffset=0     yoffset=10    xadvance=45    page=0  chnl=15
char id=91   x=331   y=111   width=23    height=51    xoffset=0     yoffset=10    xadvance=23    page=0  chnl=15
char id=92   x=73    y=168   width=33    height=50    xoffset=0     yoffset=8     xadvance=34    page=0  chnl=15
char id=93   x=488   y=109   width=20    height=49    xoffset=0     yoffset=10    xadvance=20    page=0  chnl=15
char id=94   x=395   y=247   width=21    height=24    xoffset=0     yoffset=12    xadvance=21    page=0  chnl=15
char id=95   x=73    y=305   width=32    height=8     xoffset=0     yoffset=52    xadvance=32    page=0  chnl=15
char id=96   x=0     y=307   width=21    height=19    xoffset=0     yoffset=9     xadvance=21    page=0  chnl=15
char id=97   x=425   y=211   width=34    height=35    xoffset=0     yoffset=28    xadvance=34    page=0  chnl=15
char id=98   x=301   y=112   width=29    height=51    xoffset=0     yoffset=9     xadvance=30    page=0  chnl=15
char id=99   x=323   y=214   width=36    height=37    xoffset=0     yoffset=22    xadvance=36    page=0  chnl=15
char id=100  x=0     y=172   width=36    height=50    xoffset=0     yoffset=9     xadvance=36    page=0  chnl=15
char id=101  x=248   y=262   width=35    height=32    xoffset=0     yoffset=26    xadvance=35    page=0  chnl=15
char id=102  x=409   y=57    width=35    height=53    xoffset=0     yoffset=10    xadvance=36    page=0  chnl=15
char id=103  x=220   y=218   width=39    height=43    xoffset=0     yoffset=30    xadvance=39    page=0  chnl=15
char id=104  x=107   y=168   width=29    height=50    xoffset=2     yoffset=10    xadvance=32    page=0  chnl=15
char id=105  x=139   y=218   width=11    height=45    xoffset=2     yoffset=15    xadvance=14    page=0  chnl=15
char id=106  x=0     y=0     width=26    height=62    xoffset=0     yoffset=10    xadvance=26    page=0  chnl=15
char id=107  x=400   y=0     width=30    height=56    xoffset=0     yoffset=7     xadvance=30    page=0  chnl=15
char id=108  x=181   y=59    width=10    height=54    xoffset=2     yoffset=7     xadvance=15    page=0  chnl=15
char id=109  x=32    y=270   width=41    height=34    xoffset=1     yoffset=27    xadvance=43    page=0  chnl=15
char id=110  x=141   y=264   width=30    height=34    xoffset=2     yoffset=25    xadvance=34    page=0  chnl=15
char id=111  x=315   y=255   width=35    height=31    xoffset=0     yoffset=29    xadvance=35    page=0  chnl=15
char id=112  x=445   y=56    width=33    height=53    xoffset=0     yoffset=25    xadvance=33    page=0  chnl=15
char id=113  x=25    y=118   width=41    height=52    xoffset=0     yoffset=27    xadvance=41    page=0  chnl=15
char id=114  x=109   y=265   width=31    height=34    xoffset=1     yoffset=29    xadvance=32    page=0  chnl=15
char id=115  x=172   y=263   width=36    height=33    xoffset=0     yoffset=27    xadvance=36    page=0  chnl=15
char id=116  x=260   y=215   width=30    height=41    xoffset=2     yoffset=21    xadvance=34    page=0  chnl=15
char id=117  x=284   y=257   width=30    height=32    xoffset=1     yoffset=28    xadvance=32    page=0  chnl=15
char id=118  x=74    y=269   width=34    height=34    xoffset=0     yoffset=26    xadvance=34    page=0  chnl=15
char id=119  x=382   y=211   width=42    height=35    xoffset=0     yoffset=28    xadvance=42    page=0  chnl=15
char id=120  x=460   y=210   width=33    height=35    xoffset=0     yoffset=28    xadvance=33    page=0  chnl=15
char id=121  x=419   y=162   width=36    height=48    xoffset=0     yoffset=28    xadvance=36    page=0  chnl=15
char id=122  x=209   y=263   width=38    height=32    xoffset=0     yoffset=27    xadvance=38    page=0  chnl=15
char id=124  x=13    y=118   width=11    height=53    xoffset=0     yoffset=7     xadvance=11    page=0  chnl=15
char id=126  x=417   y=247   width=39    height=21    xoffset=0     yoffset=23    xadvance=39    page=0  chnl=15
